Analysis of variance for Rgronomists
…
\[ H_0:\mu_{TRAIT}=\mu_{STAND}=\mu_{RAIS}\] \[ H_1:\exists (k,s), \mu_k\neq\mu_s\]

Import data

Importing from Excel sheet

Our dataset is in .xlsx format so we will use the readxl package.

library(readxl)
dataset <- read_excel("dataset.xlsx")
View(dataset) # or dataset

Importing from Excel sheet

## # A tibble: 1,680 x 5
##    bloc  sem   trait  HAUT NBFEUIL
##    <chr> <chr> <chr> <dbl>   <dbl>
##  1 B1    S3    TEM    14.0    4.00
##  2 B1    S3    TEM    15.0    3.00
##  3 B1    S3    TEM    15.0    4.00
##  4 B1    S3    TEM    15.0    3.00
##  5 B1    S3    TEM    14.0    4.00
##  6 B1    S3    TEM    11.0    4.00
##  7 B1    S3    TEM    15.0    4.00
##  8 B1    S3    TEM    14.0    4.00
##  9 B1    S3    TEM    16.0    4.00
## 10 B1    S3    TEM    14.0    3.00
## # ... with 1,670 more rows
…
table_graph <- summarise(by_trait_sem, 
               count = n(), 
               Hauteur = mean(HAUT, na.rm = TRUE),
               sd = sd(HAUT, na.rm = TRUE),
               se = sd / sqrt(count)
               )

A beautiful graph to finish analysis

table_graph

## # A tibble: 30 x 6
## # Groups:   trait [?]
##    trait sem   count Hauteur    sd    se
##    <chr> <chr> <int>   <dbl> <dbl> <dbl>
##  1 RAIS  S10      56   120    2.93 0.391
##  2 RAIS  S11      56   130    3.70 0.495
##  3 RAIS  S12      56   134    6.03 0.806
##  4 RAIS  S3       56    22.6  1.92 0.257
##  5 RAIS  S4       56    33.4  3.07 0.410
##  6 RAIS  S5       56    46.7  3.11 0.415
##  7 RAIS  S6       56    57.9  5.33 0.712
##  8 RAIS  S7       56    71.6  2.93 0.391
##  9 RAIS  S8       56    93.3  3.95 0.528
## 10 RAIS  S9       56   108    4.39 0.587
## # ... with 20 more rows
…
